﻿{
 
  "profiles": {

    "UBS.EmployeeData.Api": {
      "commandName": "Project",
      "applicationUrl": "http://localhost:5000",
      "environmentVariables": {
        "CONNECTION_STRING": "mongodb://localhost:27017",
        "SERVICE_PORT": "5000",
        "DATABASE_NAME": "EmployeeInfo",
        "ASPNETCORE_ENVIRONMENT": "Development"
      }
    }
  }
}